digraph "AMP::Solver::KrylovSolverParameters"
{
  edge [fontname="Helvetica",fontsize="10",labelfontname="Helvetica",labelfontsize="10"];
  node [fontname="Helvetica",fontsize="10",shape=record];
  Node0 [label="AMP::Solver::KrylovSolver\lParameters",height=0.2,width=0.4,color="black", fillcolor="grey75", style="filled", fontcolor="black"];
  Node1 -> Node0 [dir="back",color="midnightblue",fontsize="10",style="solid",fontname="Helvetica"];
  Node1 [label="AMP::Solver::SolverStrategy\lParameters",height=0.2,width=0.4,color="black", fillcolor="white", style="filled",URL="$classAMP_1_1Solver_1_1SolverStrategyParameters.html"];
  Node2 -> Node1 [dir="back",color="midnightblue",fontsize="10",style="solid",fontname="Helvetica"];
  Node2 [label="AMP::ParameterBase",height=0.2,width=0.4,color="black", fillcolor="white", style="filled",URL="$classAMP_1_1ParameterBase.html"];
}
