digraph "AMP::LinearAlgebra::NativeThyraVector"
{
  edge [fontname="Helvetica",fontsize="10",labelfontname="Helvetica",labelfontsize="10"];
  node [fontname="Helvetica",fontsize="10",shape=record];
  rankdir="LR";
  Node0 [label="AMP::LinearAlgebra\l::NativeThyraVector",height=0.2,width=0.4,color="black", fillcolor="grey75", style="filled", fontcolor="black"];
  Node1 -> Node0 [dir="back",color="midnightblue",fontsize="10",style="solid",fontname="Helvetica"];
  Node1 [label="AMP::LinearAlgebra\l::NativeVector",height=0.2,width=0.4,color="black", fillcolor="white", style="filled",URL="$classAMP_1_1LinearAlgebra_1_1NativeVector.html",tooltip="A light wrapper around a vector from a TPL. "];
  Node2 -> Node1 [dir="back",color="midnightblue",fontsize="10",style="solid",fontname="Helvetica"];
  Node2 [label="AMP::LinearAlgebra\l::Vector",height=0.2,width=0.4,color="black", fillcolor="white", style="filled",URL="$classAMP_1_1LinearAlgebra_1_1Vector.html",tooltip="Abstraction of a discrete Vector in a linear simulation. "];
  Node3 -> Node2 [dir="back",color="midnightblue",fontsize="10",style="solid",fontname="Helvetica"];
  Node3 [label="AMP::LinearAlgebra\l::VectorData",height=0.2,width=0.4,color="black", fillcolor="white", style="filled",URL="$classAMP_1_1LinearAlgebra_1_1VectorData.html",tooltip="A class used to hold vector data. "];
  Node4 -> Node2 [dir="back",color="midnightblue",fontsize="10",style="solid",fontname="Helvetica"];
  Node4 [label="AMP::LinearAlgebra\l::VectorOperations",height=0.2,width=0.4,color="black", fillcolor="white", style="filled",URL="$classAMP_1_1LinearAlgebra_1_1VectorOperations.html",tooltip="A class used to hold vector operations. "];
  Node5 -> Node2 [dir="back",color="midnightblue",fontsize="10",style="solid",fontname="Helvetica"];
  Node5 [label="AMP::enable_shared\l_from_this\< Vector \>",height=0.2,width=0.4,color="black", fillcolor="white", style="filled",URL="$classAMP_1_1enable__shared__from__this.html"];
  Node6 -> Node5 [dir="back",color="orange",fontsize="10",style="dashed",label=" \< Vector \>" ,fontname="Helvetica"];
  Node6 [label="AMP::enable_shared\l_from_this\< T \>",height=0.2,width=0.4,color="black", fillcolor="white", style="filled",URL="$classAMP_1_1enable__shared__from__this.html",tooltip="Enhancement of std::enable_shared_from_this. "];
  Node7 -> Node0 [dir="back",color="midnightblue",fontsize="10",style="solid",fontname="Helvetica"];
  Node7 [label="AMP::LinearAlgebra\l::ThyraVector",height=0.2,width=0.4,color="black", fillcolor="white", style="filled",URL="$classAMP_1_1LinearAlgebra_1_1ThyraVector.html",tooltip="ThyraVector is a bridge between AMP::LinearAlgebra::Vector and the Thyra::VectorDefaultBase data stru..."];
  Node8 -> Node7 [dir="back",color="midnightblue",fontsize="10",style="solid",fontname="Helvetica"];
  Node8 [label="AMP::LinearAlgebra\l::DataChangePassThrough",height=0.2,width=0.4,color="black", fillcolor="white", style="filled",URL="$classAMP_1_1LinearAlgebra_1_1DataChangePassThrough.html",tooltip="Interface for managing classes that need to know when managed data has changed. "];
  Node9 -> Node8 [dir="back",color="midnightblue",fontsize="10",style="solid",fontname="Helvetica"];
  Node9 [label="AMP::LinearAlgebra\l::DataChangeFirer",height=0.2,width=0.4,color="black", fillcolor="white", style="filled",URL="$classAMP_1_1LinearAlgebra_1_1DataChangeFirer.html",tooltip="Interface for managing classes that need to know when managed data has changed. "];
  Node10 -> Node8 [dir="back",color="midnightblue",fontsize="10",style="solid",fontname="Helvetica"];
  Node10 [label="AMP::LinearAlgebra\l::DataChangeListener",height=0.2,width=0.4,color="black", fillcolor="white", style="filled",URL="$classAMP_1_1LinearAlgebra_1_1DataChangeListener.html",tooltip="Interface for managing classes that need to know when managed data has changed. "];
  Node11 -> Node0 [dir="back",color="midnightblue",fontsize="10",style="solid",fontname="Helvetica"];
  Node11 [label="AMP::LinearAlgebra\l::VectorEngine",height=0.2,width=0.4,color="black", fillcolor="white", style="filled",URL="$classAMP_1_1LinearAlgebra_1_1VectorEngine.html",tooltip="A class that can perform mathematics on vectors. "];
  Node3 -> Node11 [dir="back",color="midnightblue",fontsize="10",style="solid",fontname="Helvetica"];
  Node4 -> Node11 [dir="back",color="midnightblue",fontsize="10",style="solid",fontname="Helvetica"];
  Node12 -> Node0 [dir="back",color="midnightblue",fontsize="10",style="solid",fontname="Helvetica"];
  Node12 [label="AMP::LinearAlgebra\l::VectorOperationsDefault\l\< double \>",height=0.2,width=0.4,color="black", fillcolor="white", style="filled",URL="$classAMP_1_1LinearAlgebra_1_1VectorOperationsDefault.html"];
  Node4 -> Node12 [dir="back",color="midnightblue",fontsize="10",style="solid",fontname="Helvetica"];
  Node13 -> Node12 [dir="back",color="orange",fontsize="10",style="dashed",label=" \< double \>" ,fontname="Helvetica"];
  Node13 [label="AMP::LinearAlgebra\l::VectorOperationsDefault\l\< TYPE \>",height=0.2,width=0.4,color="black", fillcolor="white", style="filled",URL="$classAMP_1_1LinearAlgebra_1_1VectorOperationsDefault.html",tooltip="A default set of vector operations. "];
  Node4 -> Node13 [dir="back",color="midnightblue",fontsize="10",style="solid",fontname="Helvetica"];
}
