digraph "AMP::Mesh::TriangleMeshIterator&lt; NG, NP &gt;"
{
  edge [fontname="Helvetica",fontsize="10",labelfontname="Helvetica",labelfontsize="10"];
  node [fontname="Helvetica",fontsize="10",shape=record];
  Node0 [label="AMP::Mesh::TriangleMeshIterator\l\< NG, NP \>",height=0.2,width=0.4,color="black", fillcolor="grey75", style="filled", fontcolor="black"];
  Node1 -> Node0 [dir="back",color="midnightblue",fontsize="10",style="solid",fontname="Helvetica"];
  Node1 [label="AMP::Mesh::MeshIterator",height=0.2,width=0.4,color="black", fillcolor="white", style="filled",URL="$classAMP_1_1Mesh_1_1MeshIterator.html",tooltip="A class used to iterate over elements in a Mesh. "];
}
