digraph "AMP::LinearAlgebra::VectorEngineParameters"
{
  edge [fontname="Helvetica",fontsize="10",labelfontname="Helvetica",labelfontsize="10"];
  node [fontname="Helvetica",fontsize="10",shape=record];
  Node0 [label="AMP::LinearAlgebra\l::VectorEngineParameters",height=0.2,width=0.4,color="black", fillcolor="grey75", style="filled", fontcolor="black"];
  Node0 -> Node1 [dir="back",color="midnightblue",fontsize="10",style="solid",fontname="Helvetica"];
  Node1 [label="AMP::LinearAlgebra\l::EpetraVectorEngineParameters",height=0.2,width=0.4,color="black", fillcolor="white", style="filled",URL="$classAMP_1_1LinearAlgebra_1_1EpetraVectorEngineParameters.html",tooltip="Class that details how to construct an EpetraVectorEngine. "];
}
