digraph "AMP::LinearAlgebra::MeshIteratorVariable"
{
  edge [fontname="Helvetica",fontsize="10",labelfontname="Helvetica",labelfontsize="10"];
  node [fontname="Helvetica",fontsize="10",shape=record];
  Node0 [label="AMP::LinearAlgebra\l::MeshIteratorVariable",height=0.2,width=0.4,color="black", fillcolor="grey75", style="filled", fontcolor="black"];
  Node1 -> Node0 [dir="back",color="midnightblue",fontsize="10",style="solid",fontname="Helvetica"];
  Node1 [label="AMP::LinearAlgebra\l::SubsetVariable",height=0.2,width=0.4,color="black", fillcolor="white", style="filled",URL="$classAMP_1_1LinearAlgebra_1_1SubsetVariable.html",tooltip="A variable used to create a SubsetVector. "];
  Node2 -> Node1 [dir="back",color="midnightblue",fontsize="10",style="solid",fontname="Helvetica"];
  Node2 [label="AMP::LinearAlgebra\l::Variable",height=0.2,width=0.4,color="black", fillcolor="white", style="filled",URL="$classAMP_1_1LinearAlgebra_1_1Variable.html",tooltip="A description of the memory allocation required for a vector. "];
  Node3 -> Node2 [dir="back",color="midnightblue",fontsize="10",style="solid",fontname="Helvetica"];
  Node3 [label="AMP::enable_shared\l_from_this\< Variable \>",height=0.2,width=0.4,color="black", fillcolor="white", style="filled",URL="$classAMP_1_1enable__shared__from__this.html"];
  Node4 -> Node3 [dir="back",color="orange",fontsize="10",style="dashed",label=" \< Variable \>" ,fontname="Helvetica"];
  Node4 [label="AMP::enable_shared\l_from_this\< T \>",height=0.2,width=0.4,color="black", fillcolor="white", style="filled",URL="$classAMP_1_1enable__shared__from__this.html",tooltip="Enhancement of std::enable_shared_from_this. "];
}
