digraph "AMP::TimeIntegrator::IDATimeIntegratorParameters"
{
  edge [fontname="Helvetica",fontsize="10",labelfontname="Helvetica",labelfontsize="10"];
  node [fontname="Helvetica",fontsize="10",shape=record];
  Node0 [label="AMP::TimeIntegrator\l::IDATimeIntegratorParameters",height=0.2,width=0.4,color="black", fillcolor="grey75", style="filled", fontcolor="black"];
  Node1 -> Node0 [dir="back",color="midnightblue",fontsize="10",style="solid",fontname="Helvetica"];
  Node1 [label="AMP::TimeIntegrator\l::TimeIntegratorParameters",height=0.2,width=0.4,color="black", fillcolor="white", style="filled",URL="$classAMP_1_1TimeIntegrator_1_1TimeIntegratorParameters.html",tooltip="TimeIntegratorParameters is a base class for providing parameters for the TimeIntegrator&#39;s. The Database object contained must contain the following entries: "];
  Node2 -> Node1 [dir="back",color="midnightblue",fontsize="10",style="solid",fontname="Helvetica"];
  Node2 [label="AMP::ParameterBase",height=0.2,width=0.4,color="black", fillcolor="white", style="filled",URL="$classAMP_1_1ParameterBase.html"];
}
