digraph "AMP::Operator::AsyncMapOperator"
{
  edge [fontname="Helvetica",fontsize="10",labelfontname="Helvetica",labelfontsize="10"];
  node [fontname="Helvetica",fontsize="10",shape=record];
  rankdir="LR";
  Node0 [label="AMP::Operator::AsyncMapOperator",height=0.2,width=0.4,color="black", fillcolor="grey75", style="filled", fontcolor="black"];
  Node1 -> Node0 [dir="back",color="midnightblue",fontsize="10",style="solid",fontname="Helvetica"];
  Node1 [label="AMP::Operator::Asynchronous\lOperator",height=0.2,width=0.4,color="black", fillcolor="white", style="filled",URL="$classAMP_1_1Operator_1_1AsynchronousOperator.html",tooltip="A class that allows for overlapped communication. "];
  Node2 -> Node1 [dir="back",color="midnightblue",fontsize="10",style="solid",fontname="Helvetica"];
  Node2 [label="AMP::Operator::Operator",height=0.2,width=0.4,color="black", fillcolor="white", style="filled",URL="$classAMP_1_1Operator_1_1Operator.html"];
  Node0 -> Node3 [dir="back",color="midnightblue",fontsize="10",style="solid",fontname="Helvetica"];
  Node3 [label="AMP::Operator::CladToSubchannelMap",height=0.2,width=0.4,color="black", fillcolor="white", style="filled",URL="$classAMP_1_1Operator_1_1CladToSubchannelMap.html",tooltip="A class used to map temperature from the clad meshes to the subchannel mesh. "];
  Node0 -> Node4 [dir="back",color="midnightblue",fontsize="10",style="solid",fontname="Helvetica"];
  Node4 [label="AMP::Operator::Map3to1to3",height=0.2,width=0.4,color="black", fillcolor="white", style="filled",URL="$classAMP_1_1Operator_1_1Map3to1to3.html",tooltip="For problems with a great deal of symmetry, it is possible to move data from one mesh to another by g..."];
  Node4 -> Node5 [dir="back",color="midnightblue",fontsize="10",style="solid",fontname="Helvetica"];
  Node5 [label="AMP::Operator::ScalarN2GZAxisMap",height=0.2,width=0.4,color="black", fillcolor="white", style="filled",URL="$classAMP_1_1Operator_1_1ScalarN2GZAxisMap.html",tooltip="A class used to reduce a 3D problem to 1D, transfer the solution, and map back to 3D..."];
  Node4 -> Node6 [dir="back",color="midnightblue",fontsize="10",style="solid",fontname="Helvetica"];
  Node6 [label="AMP::Operator::ScalarZAxisMap",height=0.2,width=0.4,color="black", fillcolor="white", style="filled",URL="$classAMP_1_1Operator_1_1ScalarZAxisMap.html",tooltip="A class used to reduce a 3D problem to 1D, transfer the solution, and map back to 3D..."];
  Node6 -> Node7 [dir="back",color="midnightblue",fontsize="10",style="solid",fontname="Helvetica"];
  Node7 [label="AMP::Operator::StridedZAxisMap",height=0.2,width=0.4,color="black", fillcolor="white", style="filled",URL="$classAMP_1_1Operator_1_1StridedZAxisMap.html",tooltip="A class used to reduce a 3D problem to 1D, transfer the solution, and map back to 3D..."];
  Node0 -> Node8 [dir="back",color="midnightblue",fontsize="10",style="solid",fontname="Helvetica"];
  Node8 [label="AMP::Operator::NodeToNodeMap",height=0.2,width=0.4,color="black", fillcolor="white", style="filled",URL="$classAMP_1_1Operator_1_1NodeToNodeMap.html",tooltip="A class for mapping a vector from one surface to another where the nodes are aligned. This routine is bi-directional. It will exchange data for the aligned nodes. "];
  Node8 -> Node9 [dir="back",color="midnightblue",fontsize="10",style="solid",fontname="Helvetica"];
  Node9 [label="AMP::Operator::GaussPoint\lToGaussPointMap",height=0.2,width=0.4,color="black", fillcolor="white", style="filled",URL="$classAMP_1_1Operator_1_1GaussPointToGaussPointMap.html"];
  Node0 -> Node10 [dir="back",color="midnightblue",fontsize="10",style="solid",fontname="Helvetica"];
  Node10 [label="AMP::Operator::Subchannel\lToCladMap",height=0.2,width=0.4,color="black", fillcolor="white", style="filled",URL="$classAMP_1_1Operator_1_1SubchannelToCladMap.html",tooltip="A class used to map temperature from the clad meshes to the subchannel mesh. "];
  Node10 -> Node11 [dir="back",color="midnightblue",fontsize="10",style="solid",fontname="Helvetica"];
  Node11 [label="AMP::Operator::Subchannel\lToCladGPMap",height=0.2,width=0.4,color="black", fillcolor="white", style="filled",URL="$classAMP_1_1Operator_1_1SubchannelToCladGPMap.html",tooltip="A gauss-point version of SubchannelToCladMap. "];
}
