digraph "AMP::Operator::TrilinosMatrixShellOperator"
{
  edge [fontname="Helvetica",fontsize="10",labelfontname="Helvetica",labelfontsize="10"];
  node [fontname="Helvetica",fontsize="10",shape=record];
  Node0 [label="AMP::Operator::TrilinosMatrix\lShellOperator",height=0.2,width=0.4,color="black", fillcolor="grey75", style="filled", fontcolor="black"];
  Node1 -> Node0 [dir="back",color="midnightblue",fontsize="10",style="solid",fontname="Helvetica"];
  Node1 [label="AMP::Operator::LinearOperator",height=0.2,width=0.4,color="black", fillcolor="white", style="filled",URL="$classAMP_1_1Operator_1_1LinearOperator.html"];
  Node2 -> Node1 [dir="back",color="midnightblue",fontsize="10",style="solid",fontname="Helvetica"];
  Node2 [label="AMP::Operator::Operator",height=0.2,width=0.4,color="black", fillcolor="white", style="filled",URL="$classAMP_1_1Operator_1_1Operator.html"];
}
