digraph "AMP::Mesh::BoxMesh"
{
  edge [fontname="Helvetica",fontsize="10",labelfontname="Helvetica",labelfontsize="10"];
  node [fontname="Helvetica",fontsize="10",shape=record];
  Node0 [label="AMP::Mesh::BoxMesh",height=0.2,width=0.4,color="black", fillcolor="grey75", style="filled", fontcolor="black"];
  Node1 -> Node0 [dir="back",color="midnightblue",fontsize="10",style="solid",fontname="Helvetica"];
  Node1 [label="AMP::Mesh::Mesh",height=0.2,width=0.4,color="black", fillcolor="white", style="filled",URL="$classAMP_1_1Mesh_1_1Mesh.html",tooltip="A class used to abstract away mesh from an application. "];
  Node2 -> Node1 [dir="back",color="midnightblue",fontsize="10",style="solid",fontname="Helvetica"];
  Node2 [label="AMP::enable_shared\l_from_this\< AMP::Mesh\l::Mesh \>",height=0.2,width=0.4,color="black", fillcolor="white", style="filled",URL="$classAMP_1_1enable__shared__from__this.html"];
  Node3 -> Node2 [dir="back",color="orange",fontsize="10",style="dashed",label=" \< AMP::Mesh::Mesh \>" ,fontname="Helvetica"];
  Node3 [label="AMP::enable_shared\l_from_this\< T \>",height=0.2,width=0.4,color="black", fillcolor="white", style="filled",URL="$classAMP_1_1enable__shared__from__this.html",tooltip="Enhancement of std::enable_shared_from_this. "];
  Node0 -> Node4 [dir="back",color="midnightblue",fontsize="10",style="solid",fontname="Helvetica"];
  Node4 [label="AMP::Mesh::MovableBoxMesh",height=0.2,width=0.4,color="black", fillcolor="white", style="filled",URL="$classAMP_1_1Mesh_1_1MovableBoxMesh.html",tooltip="A general BoxMesh. "];
  Node0 -> Node5 [dir="back",color="midnightblue",fontsize="10",style="solid",fontname="Helvetica"];
  Node5 [label="AMP::Mesh::StructuredGeometryMesh",height=0.2,width=0.4,color="black", fillcolor="white", style="filled",URL="$classAMP_1_1Mesh_1_1StructuredGeometryMesh.html",tooltip="A derived version of BoxMesh for a given geometry. "];
}
