digraph "AMP::LinearAlgebra::DataChangePassThrough"
{
  edge [fontname="Helvetica",fontsize="10",labelfontname="Helvetica",labelfontsize="10"];
  node [fontname="Helvetica",fontsize="10",shape=record];
  Node0 [label="AMP::LinearAlgebra\l::DataChangePassThrough",height=0.2,width=0.4,color="black", fillcolor="grey75", style="filled", fontcolor="black"];
  Node1 -> Node0 [dir="back",color="midnightblue",fontsize="10",style="solid",fontname="Helvetica"];
  Node1 [label="AMP::LinearAlgebra\l::DataChangeFirer",height=0.2,width=0.4,color="black", fillcolor="white", style="filled",URL="$classAMP_1_1LinearAlgebra_1_1DataChangeFirer.html",tooltip="Interface for managing classes that need to know when managed data has changed. "];
  Node2 -> Node0 [dir="back",color="midnightblue",fontsize="10",style="solid",fontname="Helvetica"];
  Node2 [label="AMP::LinearAlgebra\l::DataChangeListener",height=0.2,width=0.4,color="black", fillcolor="white", style="filled",URL="$classAMP_1_1LinearAlgebra_1_1DataChangeListener.html",tooltip="Interface for managing classes that need to know when managed data has changed. "];
  Node0 -> Node3 [dir="back",color="midnightblue",fontsize="10",style="solid",fontname="Helvetica"];
  Node3 [label="AMP::LinearAlgebra\l::MultiVector",height=0.2,width=0.4,color="black", fillcolor="white", style="filled",URL="$classAMP_1_1LinearAlgebra_1_1MultiVector.html",tooltip="A collection of AMP Vectors that appear as one vector. "];
  Node0 -> Node4 [dir="back",color="midnightblue",fontsize="10",style="solid",fontname="Helvetica"];
  Node4 [label="AMP::LinearAlgebra\l::ThyraVector",height=0.2,width=0.4,color="black", fillcolor="white", style="filled",URL="$classAMP_1_1LinearAlgebra_1_1ThyraVector.html",tooltip="ThyraVector is a bridge between AMP::LinearAlgebra::Vector and the Thyra::VectorDefaultBase data stru..."];
  Node4 -> Node5 [dir="back",color="midnightblue",fontsize="10",style="solid",fontname="Helvetica"];
  Node5 [label="AMP::LinearAlgebra\l::ManagedThyraVector",height=0.2,width=0.4,color="black", fillcolor="white", style="filled",URL="$classAMP_1_1LinearAlgebra_1_1ManagedThyraVector.html",tooltip="Vector capable of returning an Epetra_Vector from a ManagedVector. "];
  Node4 -> Node6 [dir="back",color="midnightblue",fontsize="10",style="solid",fontname="Helvetica"];
  Node6 [label="AMP::LinearAlgebra\l::NativeThyraVector",height=0.2,width=0.4,color="black", fillcolor="white", style="filled",URL="$classAMP_1_1LinearAlgebra_1_1NativeThyraVector.html",tooltip="An AMP Vector that uses Thyra for parallel data management, linear algebra, etc. "];
}
