digraph "src/operators/ColumnOperator.h"
{
  edge [fontname="Helvetica",fontsize="10",labelfontname="Helvetica",labelfontsize="10"];
  node [fontname="Helvetica",fontsize="10",shape=record];
  Node4 [label="src/operators/ColumnOperator.h",height=0.2,width=0.4,color="black", fillcolor="grey75", style="filled", fontcolor="black"];
  Node4 -> Node5 [dir="back",color="midnightblue",fontsize="10",style="solid",fontname="Helvetica"];
  Node5 [label="src/operators/Asynchronous\lColumnOperator.h",height=0.2,width=0.4,color="black", fillcolor="white", style="filled",URL="$AsynchronousColumnOperator_8h.html"];
  Node4 -> Node6 [dir="back",color="midnightblue",fontsize="10",style="solid",fontname="Helvetica"];
  Node6 [label="src/operators/CoupledOperator.h",height=0.2,width=0.4,color="black", fillcolor="white", style="filled",URL="$CoupledOperator_8h.html"];
}
