digraph "src/operators/ElementPhysicsModel.h"
{
  edge [fontname="Helvetica",fontsize="10",labelfontname="Helvetica",labelfontsize="10"];
  node [fontname="Helvetica",fontsize="10",shape=record];
  Node5 [label="src/operators/ElementPhysics\lModel.h",height=0.2,width=0.4,color="black", fillcolor="grey75", style="filled", fontcolor="black"];
  Node5 -> Node6 [dir="back",color="midnightblue",fontsize="10",style="solid",fontname="Helvetica"];
  Node6 [label="src/operators/OperatorBuilder.h",height=0.2,width=0.4,color="black", fillcolor="white", style="filled",URL="$OperatorBuilder_8h.html"];
}
