digraph "src/vectors/trilinos/epetra/EpetraVectorEngine.h"
{
  edge [fontname="Helvetica",fontsize="10",labelfontname="Helvetica",labelfontsize="10"];
  node [fontname="Helvetica",fontsize="10",shape=record];
  Node9 [label="src/vectors/trilinos\l/epetra/EpetraVectorEngine.h",height=0.2,width=0.4,color="black", fillcolor="grey75", style="filled", fontcolor="black"];
  Node9 -> Node10 [dir="back",color="midnightblue",fontsize="10",style="solid",fontname="Helvetica"];
  Node10 [label="src/vectors/trilinos\l/epetra/ManagedEpetraVector.h",height=0.2,width=0.4,color="black", fillcolor="white", style="filled",URL="$ManagedEpetraVector_8h.html"];
}
