digraph "Graphical Class Hierarchy"
{
  edge [fontname="Helvetica",fontsize="10",labelfontname="Helvetica",labelfontsize="10"];
  node [fontname="Helvetica",fontsize="10",shape=record];
  rankdir="LR";
  Node412 [label="Field",height=0.2,width=0.4,color="grey75", fillcolor="white", style="filled"];
  Node412 -> Node0 [dir="back",color="midnightblue",fontsize="10",style="solid",fontname="Helvetica"];
  Node0 [label="AMP::Operator::DTKAMPField",height=0.2,width=0.4,color="black", fillcolor="white", style="filled",URL="$classAMP_1_1Operator_1_1DTKAMPField.html"];
}
