digraph "Graphical Class Hierarchy"
{
  edge [fontname="Helvetica",fontsize="10",labelfontname="Helvetica",labelfontsize="10"];
  node [fontname="Helvetica",fontsize="10",shape=record];
  rankdir="LR";
  Node0 [label="AMP::Discretization\l::createLibmeshElements",height=0.2,width=0.4,color="black", fillcolor="white", style="filled",URL="$classAMP_1_1Discretization_1_1createLibmeshElements.html"];
}
