digraph "Graphical Class Hierarchy"
{
  edge [fontname="Helvetica",fontsize="10",labelfontname="Helvetica",labelfontsize="10"];
  node [fontname="Helvetica",fontsize="10",shape=record];
  rankdir="LR";
  Node0 [label="AMP::Mesh::MeshElement",height=0.2,width=0.4,color="black", fillcolor="white", style="filled",URL="$classAMP_1_1Mesh_1_1MeshElement.html"];
  Node0 -> Node1 [dir="back",color="midnightblue",fontsize="10",style="solid",fontname="Helvetica"];
  Node1 [label="AMP::Mesh::libmeshMeshElement",height=0.2,width=0.4,color="black", fillcolor="white", style="filled",URL="$classAMP_1_1Mesh_1_1libmeshMeshElement.html",tooltip="A derived class used to define a mesh element. "];
  Node0 -> Node2 [dir="back",color="midnightblue",fontsize="10",style="solid",fontname="Helvetica"];
  Node2 [label="AMP::Mesh::STKMeshElement",height=0.2,width=0.4,color="black", fillcolor="white", style="filled",URL="$classAMP_1_1Mesh_1_1STKMeshElement.html",tooltip="A derived class used to define a mesh element. "];
  Node0 -> Node3 [dir="back",color="midnightblue",fontsize="10",style="solid",fontname="Helvetica"];
  Node3 [label="AMP::Mesh::structuredMesh\lElement",height=0.2,width=0.4,color="black", fillcolor="white", style="filled",URL="$classAMP_1_1Mesh_1_1structuredMeshElement.html",tooltip="A derived class used to define a mesh element. "];
  Node0 -> Node4 [dir="back",color="midnightblue",fontsize="10",style="solid",fontname="Helvetica"];
  Node4 [label="AMP::Mesh::TriangleMeshElement\l\< NG, NP \>",height=0.2,width=0.4,color="black", fillcolor="white", style="filled",URL="$classAMP_1_1Mesh_1_1TriangleMeshElement.html",tooltip="A derived class used to define a mesh element. "];
}
