digraph "Graphical Class Hierarchy"
{
  edge [fontname="Helvetica",fontsize="10",labelfontname="Helvetica",labelfontsize="10"];
  node [fontname="Helvetica",fontsize="10",shape=record];
  rankdir="LR";
  Node0 [label="Indexer",height=0.2,width=0.4,color="black", fillcolor="white", style="filled",URL="$classIndexer.html",tooltip="A remapping class used by SubsetVector to translate global indices in a subset vector to the underlyi..."];
}
