digraph "Graphical Class Hierarchy"
{
  edge [fontname="Helvetica",fontsize="10",labelfontname="Helvetica",labelfontsize="10"];
  node [fontname="Helvetica",fontsize="10",shape=record];
  rankdir="LR";
  Node0 [label="AMP::Mesh::StructuredMesh\lHelper",height=0.2,width=0.4,color="black", fillcolor="white", style="filled",URL="$classAMP_1_1Mesh_1_1StructuredMeshHelper.html",tooltip="A class used to provide utility functions for simple structured meshes. "];
}
