digraph "Graphical Class Hierarchy"
{
  edge [fontname="Helvetica",fontsize="10",labelfontname="Helvetica",labelfontsize="10"];
  node [fontname="Helvetica",fontsize="10",shape=record];
  rankdir="LR";
  Node0 [label="AMP::voodoo::Singleton\l\< Object \>",height=0.2,width=0.4,color="black", fillcolor="white", style="filled",URL="$classAMP_1_1voodoo_1_1Singleton.html"];
}
