digraph "Graphical Class Hierarchy"
{
  edge [fontname="Helvetica",fontsize="10",labelfontname="Helvetica",labelfontsize="10"];
  node [fontname="Helvetica",fontsize="10",shape=record];
  rankdir="LR";
  Node0 [label="AMP::ThreadPool::thread_id_t",height=0.2,width=0.4,color="black", fillcolor="white", style="filled",URL="$classAMP_1_1ThreadPool_1_1thread__id__t.html",tooltip="This a class to hold the work item id. "];
}
