digraph "Graphical Class Hierarchy"
{
  edge [fontname="Helvetica",fontsize="10",labelfontname="Helvetica",labelfontsize="10"];
  node [fontname="Helvetica",fontsize="10",shape=record];
  rankdir="LR";
  Node505 [label="deque",height=0.2,width=0.4,color="grey75", fillcolor="white", style="filled"];
  Node505 -> Node506 [dir="back",color="firebrick4",fontsize="10",style="solid",fontname="Helvetica"];
  Node506 [label="AMP::LinearAlgebra\l::DataChangeFirer",height=0.2,width=0.4,color="black", fillcolor="white", style="filled",URL="$classAMP_1_1LinearAlgebra_1_1DataChangeFirer.html",tooltip="Interface for managing classes that need to know when managed data has changed. "];
  Node506 -> Node507 [dir="back",color="midnightblue",fontsize="10",style="solid",fontname="Helvetica"];
  Node507 [label="AMP::LinearAlgebra\l::DataChangePassThrough",height=0.2,width=0.4,color="black", fillcolor="white", style="filled",URL="$classAMP_1_1LinearAlgebra_1_1DataChangePassThrough.html",tooltip="Interface for managing classes that need to know when managed data has changed. "];
  Node507 -> Node19 [dir="back",color="midnightblue",fontsize="10",style="solid",fontname="Helvetica"];
  Node19 [label="AMP::LinearAlgebra\l::MultiVector",height=0.2,width=0.4,color="black", fillcolor="white", style="filled",URL="$classAMP_1_1LinearAlgebra_1_1MultiVector.html",tooltip="A collection of AMP Vectors that appear as one vector. "];
  Node507 -> Node508 [dir="back",color="midnightblue",fontsize="10",style="solid",fontname="Helvetica"];
  Node508 [label="AMP::LinearAlgebra\l::ThyraVector",height=0.2,width=0.4,color="black", fillcolor="white", style="filled",URL="$classAMP_1_1LinearAlgebra_1_1ThyraVector.html",tooltip="ThyraVector is a bridge between AMP::LinearAlgebra::Vector and the Thyra::VectorDefaultBase data stru..."];
  Node508 -> Node34 [dir="back",color="midnightblue",fontsize="10",style="solid",fontname="Helvetica"];
  Node34 [label="AMP::LinearAlgebra\l::ManagedThyraVector",height=0.2,width=0.4,color="black", fillcolor="white", style="filled",URL="$classAMP_1_1LinearAlgebra_1_1ManagedThyraVector.html",tooltip="Vector capable of returning an Epetra_Vector from a ManagedVector. "];
  Node508 -> Node36 [dir="back",color="midnightblue",fontsize="10",style="solid",fontname="Helvetica"];
  Node36 [label="AMP::LinearAlgebra\l::NativeThyraVector",height=0.2,width=0.4,color="black", fillcolor="white", style="filled",URL="$classAMP_1_1LinearAlgebra_1_1NativeThyraVector.html",tooltip="An AMP Vector that uses Thyra for parallel data management, linear algebra, etc. "];
  Node506 -> Node30 [dir="back",color="midnightblue",fontsize="10",style="solid",fontname="Helvetica"];
  Node30 [label="AMP::LinearAlgebra\l::ManagedVector",height=0.2,width=0.4,color="black", fillcolor="white", style="filled",URL="$classAMP_1_1LinearAlgebra_1_1ManagedVector.html",tooltip="Class used to control data and kernels of various vector libraries. "];
  Node30 -> Node31 [dir="back",color="midnightblue",fontsize="10",style="solid",fontname="Helvetica"];
  Node31 [label="AMP::LinearAlgebra\l::ManagedEpetraVector",height=0.2,width=0.4,color="black", fillcolor="white", style="filled",URL="$classAMP_1_1LinearAlgebra_1_1ManagedEpetraVector.html",tooltip="Vector capable of returning an Epetra_Vector from a ManagedVector. "];
  Node30 -> Node32 [dir="back",color="midnightblue",fontsize="10",style="solid",fontname="Helvetica"];
  Node32 [label="AMP::LinearAlgebra\l::ManagedPetscVector",height=0.2,width=0.4,color="black", fillcolor="white", style="filled",URL="$classAMP_1_1LinearAlgebra_1_1ManagedPetscVector.html",tooltip="A class that provides a PETSc vector interfaced to a ManagedVector. "];
  Node30 -> Node33 [dir="back",color="midnightblue",fontsize="10",style="solid",fontname="Helvetica"];
  Node33 [label="AMP::LinearAlgebra\l::ManagedSundialsVector",height=0.2,width=0.4,color="black", fillcolor="white", style="filled",URL="$classAMP_1_1LinearAlgebra_1_1ManagedSundialsVector.html",tooltip="A class that can provide a Sundials N_Vector view of an AMP Vector. "];
  Node30 -> Node34 [dir="back",color="midnightblue",fontsize="10",style="solid",fontname="Helvetica"];
  Node505 -> Node509 [dir="back",color="firebrick4",fontsize="10",style="solid",fontname="Helvetica"];
  Node509 [label="AMP::LinearAlgebra\l::DataChangeListener",height=0.2,width=0.4,color="black", fillcolor="white", style="filled",URL="$classAMP_1_1LinearAlgebra_1_1DataChangeListener.html",tooltip="Interface for managing classes that need to know when managed data has changed. "];
  Node509 -> Node507 [dir="back",color="midnightblue",fontsize="10",style="solid",fontname="Helvetica"];
  Node509 -> Node510 [dir="back",color="midnightblue",fontsize="10",style="solid",fontname="Helvetica"];
  Node510 [label="AMP::LinearAlgebra\l::PetscVector",height=0.2,width=0.4,color="black", fillcolor="white", style="filled",URL="$classAMP_1_1LinearAlgebra_1_1PetscVector.html",tooltip="PetscVector is a bridge between AMP::LinearAlgebra::Vector and the PETSc Vec data structure..."];
  Node510 -> Node32 [dir="back",color="midnightblue",fontsize="10",style="solid",fontname="Helvetica"];
  Node510 -> Node35 [dir="back",color="midnightblue",fontsize="10",style="solid",fontname="Helvetica"];
  Node35 [label="AMP::LinearAlgebra\l::NativePetscVector",height=0.2,width=0.4,color="black", fillcolor="white", style="filled",URL="$classAMP_1_1LinearAlgebra_1_1NativePetscVector.html",tooltip="An AMP Vector that uses PETSc for parallel data management, linear algebra, etc. "];
  Node427 [label="enable_shared_from_this",height=0.2,width=0.4,color="grey75", fillcolor="white", style="filled"];
  Node427 -> Node428 [dir="back",color="midnightblue",fontsize="10",style="solid",fontname="Helvetica"];
  Node428 [label="AMP::enable_shared\l_from_this\< T \>",height=0.2,width=0.4,color="black", fillcolor="white", style="filled",URL="$classAMP_1_1enable__shared__from__this.html",tooltip="Enhancement of std::enable_shared_from_this. "];
  Node427 -> Node429 [dir="back",color="midnightblue",fontsize="10",style="solid",fontname="Helvetica"];
  Node429 [label="AMP::enable_shared\l_from_this\< AMP::Discretization\l::DOFManager \>",height=0.2,width=0.4,color="black", fillcolor="white", style="filled",URL="$classAMP_1_1enable__shared__from__this.html"];
  Node429 -> Node430 [dir="back",color="midnightblue",fontsize="10",style="solid",fontname="Helvetica"];
  Node430 [label="AMP::Discretization\l::DOFManager",height=0.2,width=0.4,color="black", fillcolor="white", style="filled",URL="$classAMP_1_1Discretization_1_1DOFManager.html"];
  Node430 -> Node431 [dir="back",color="midnightblue",fontsize="10",style="solid",fontname="Helvetica"];
  Node431 [label="AMP::Discretization\l::multiDOFManager",height=0.2,width=0.4,color="black", fillcolor="white", style="filled",URL="$classAMP_1_1Discretization_1_1multiDOFManager.html",tooltip="A derived class to combine multiple DOFManagers. "];
  Node430 -> Node432 [dir="back",color="midnightblue",fontsize="10",style="solid",fontname="Helvetica"];
  Node432 [label="AMP::Discretization\l::simpleDOFManager",height=0.2,width=0.4,color="black", fillcolor="white", style="filled",URL="$classAMP_1_1Discretization_1_1simpleDOFManager.html",tooltip="A derived class to create a simple DOF_Manager. "];
  Node430 -> Node433 [dir="back",color="midnightblue",fontsize="10",style="solid",fontname="Helvetica"];
  Node433 [label="AMP::Discretization\l::structuredFaceDOFManager",height=0.2,width=0.4,color="black", fillcolor="white", style="filled",URL="$classAMP_1_1Discretization_1_1structuredFaceDOFManager.html",tooltip="A derived class to create a DOFManager for faces. "];
  Node430 -> Node434 [dir="back",color="midnightblue",fontsize="10",style="solid",fontname="Helvetica"];
  Node434 [label="AMP::Discretization\l::subsetDOFManager",height=0.2,width=0.4,color="black", fillcolor="white", style="filled",URL="$classAMP_1_1Discretization_1_1subsetDOFManager.html",tooltip="A derived class to subset a DOFManagers. "];
  Node427 -> Node435 [dir="back",color="midnightblue",fontsize="10",style="solid",fontname="Helvetica"];
  Node435 [label="AMP::enable_shared\l_from_this\< AMP::Mesh\l::Mesh \>",height=0.2,width=0.4,color="black", fillcolor="white", style="filled",URL="$classAMP_1_1enable__shared__from__this.html"];
  Node435 -> Node436 [dir="back",color="midnightblue",fontsize="10",style="solid",fontname="Helvetica"];
  Node436 [label="AMP::Mesh::Mesh",height=0.2,width=0.4,color="black", fillcolor="white", style="filled",URL="$classAMP_1_1Mesh_1_1Mesh.html",tooltip="A class used to abstract away mesh from an application. "];
  Node436 -> Node437 [dir="back",color="midnightblue",fontsize="10",style="solid",fontname="Helvetica"];
  Node437 [label="AMP::Mesh::BoxMesh",height=0.2,width=0.4,color="black", fillcolor="white", style="filled",URL="$classAMP_1_1Mesh_1_1BoxMesh.html",tooltip="A class used to represent a logically rectangular box mesh. "];
  Node437 -> Node438 [dir="back",color="midnightblue",fontsize="10",style="solid",fontname="Helvetica"];
  Node438 [label="AMP::Mesh::MovableBoxMesh",height=0.2,width=0.4,color="black", fillcolor="white", style="filled",URL="$classAMP_1_1Mesh_1_1MovableBoxMesh.html",tooltip="A general BoxMesh. "];
  Node437 -> Node439 [dir="back",color="midnightblue",fontsize="10",style="solid",fontname="Helvetica"];
  Node439 [label="AMP::Mesh::StructuredGeometryMesh",height=0.2,width=0.4,color="black", fillcolor="white", style="filled",URL="$classAMP_1_1Mesh_1_1StructuredGeometryMesh.html",tooltip="A derived version of BoxMesh for a given geometry. "];
  Node436 -> Node440 [dir="back",color="midnightblue",fontsize="10",style="solid",fontname="Helvetica"];
  Node440 [label="AMP::Mesh::libmeshMesh",height=0.2,width=0.4,color="black", fillcolor="white", style="filled",URL="$classAMP_1_1Mesh_1_1libmeshMesh.html",tooltip="A concrete mesh class for libMesh. "];
  Node436 -> Node441 [dir="back",color="midnightblue",fontsize="10",style="solid",fontname="Helvetica"];
  Node441 [label="AMP::Mesh::moabMesh",height=0.2,width=0.4,color="black", fillcolor="white", style="filled",URL="$classAMP_1_1Mesh_1_1moabMesh.html",tooltip="A concrete mesh class for moabMesh. "];
  Node436 -> Node442 [dir="back",color="midnightblue",fontsize="10",style="solid",fontname="Helvetica"];
  Node442 [label="AMP::Mesh::MultiMesh",height=0.2,width=0.4,color="black", fillcolor="white", style="filled",URL="$classAMP_1_1Mesh_1_1MultiMesh.html",tooltip="A concrete mesh class for a multi-mesh. "];
  Node436 -> Node443 [dir="back",color="midnightblue",fontsize="10",style="solid",fontname="Helvetica"];
  Node443 [label="AMP::Mesh::STKMesh",height=0.2,width=0.4,color="black", fillcolor="white", style="filled",URL="$classAMP_1_1Mesh_1_1STKMesh.html",tooltip="A concrete mesh class for STKMesh. "];
  Node436 -> Node444 [dir="back",color="midnightblue",fontsize="10",style="solid",fontname="Helvetica"];
  Node444 [label="AMP::Mesh::SubsetMesh",height=0.2,width=0.4,color="black", fillcolor="white", style="filled",URL="$classAMP_1_1Mesh_1_1SubsetMesh.html",tooltip="A class used to handle a subset mesh. "];
  Node436 -> Node445 [dir="back",color="midnightblue",fontsize="10",style="solid",fontname="Helvetica"];
  Node445 [label="AMP::Mesh::TriangleMesh\l\< NG, NP \>",height=0.2,width=0.4,color="black", fillcolor="white", style="filled",URL="$classAMP_1_1Mesh_1_1TriangleMesh.html",tooltip="A class used to represent an unstructured mesh of Triangles/Tetrahedrals. "];
  Node427 -> Node446 [dir="back",color="midnightblue",fontsize="10",style="solid",fontname="Helvetica"];
  Node446 [label="AMP::enable_shared\l_from_this\< Variable \>",height=0.2,width=0.4,color="black", fillcolor="white", style="filled",URL="$classAMP_1_1enable__shared__from__this.html"];
  Node446 -> Node447 [dir="back",color="midnightblue",fontsize="10",style="solid",fontname="Helvetica"];
  Node447 [label="AMP::LinearAlgebra\l::Variable",height=0.2,width=0.4,color="black", fillcolor="white", style="filled",URL="$classAMP_1_1LinearAlgebra_1_1Variable.html",tooltip="A description of the memory allocation required for a vector. "];
  Node447 -> Node448 [dir="back",color="midnightblue",fontsize="10",style="solid",fontname="Helvetica"];
  Node448 [label="AMP::LinearAlgebra\l::MultiVariable",height=0.2,width=0.4,color="black", fillcolor="white", style="filled",URL="$classAMP_1_1LinearAlgebra_1_1MultiVariable.html",tooltip="A class for combining variables. "];
  Node447 -> Node449 [dir="back",color="midnightblue",fontsize="10",style="solid",fontname="Helvetica"];
  Node449 [label="AMP::LinearAlgebra\l::SubsetVariable",height=0.2,width=0.4,color="black", fillcolor="white", style="filled",URL="$classAMP_1_1LinearAlgebra_1_1SubsetVariable.html",tooltip="A variable used to create a SubsetVector. "];
  Node449 -> Node450 [dir="back",color="midnightblue",fontsize="10",style="solid",fontname="Helvetica"];
  Node450 [label="AMP::LinearAlgebra\l::CommVariable",height=0.2,width=0.4,color="black", fillcolor="white", style="filled",URL="$classAMP_1_1LinearAlgebra_1_1CommVariable.html"];
  Node449 -> Node451 [dir="back",color="midnightblue",fontsize="10",style="solid",fontname="Helvetica"];
  Node451 [label="AMP::LinearAlgebra\l::MeshIteratorVariable",height=0.2,width=0.4,color="black", fillcolor="white", style="filled",URL="$classAMP_1_1LinearAlgebra_1_1MeshIteratorVariable.html"];
  Node449 -> Node452 [dir="back",color="midnightblue",fontsize="10",style="solid",fontname="Helvetica"];
  Node452 [label="AMP::LinearAlgebra\l::MeshVariable",height=0.2,width=0.4,color="black", fillcolor="white", style="filled",URL="$classAMP_1_1LinearAlgebra_1_1MeshVariable.html",tooltip="An AMP Variable that describes how to subset a DOF for a mesh. "];
  Node449 -> Node453 [dir="back",color="midnightblue",fontsize="10",style="solid",fontname="Helvetica"];
  Node453 [label="AMP::LinearAlgebra\l::RandomSubsetVariable",height=0.2,width=0.4,color="black", fillcolor="white", style="filled",URL="$classAMP_1_1LinearAlgebra_1_1RandomSubsetVariable.html"];
  Node449 -> Node454 [dir="back",color="midnightblue",fontsize="10",style="solid",fontname="Helvetica"];
  Node454 [label="AMP::LinearAlgebra\l::StridedVariable",height=0.2,width=0.4,color="black", fillcolor="white", style="filled",URL="$classAMP_1_1LinearAlgebra_1_1StridedVariable.html",tooltip="An AMP Variable that describes how to stride a vector to create a SubsetVector. "];
  Node427 -> Node455 [dir="back",color="midnightblue",fontsize="10",style="solid",fontname="Helvetica"];
  Node455 [label="AMP::enable_shared\l_from_this\< Vector \>",height=0.2,width=0.4,color="black", fillcolor="white", style="filled",URL="$classAMP_1_1enable__shared__from__this.html"];
  Node455 -> Node3 [dir="back",color="midnightblue",fontsize="10",style="solid",fontname="Helvetica"];
  Node3 [label="AMP::LinearAlgebra\l::Vector",height=0.2,width=0.4,color="black", fillcolor="white", style="filled",URL="$classAMP_1_1LinearAlgebra_1_1Vector.html",tooltip="Abstraction of a discrete Vector in a linear simulation. "];
  Node3 -> Node39 [dir="back",color="midnightblue",fontsize="10",style="solid",fontname="Helvetica"];
  Node39 [label="AMP::LinearAlgebra\l::ArrayVector\< T, FUN,\l Allocator \>",height=0.2,width=0.4,color="black", fillcolor="white", style="filled",URL="$classAMP_1_1LinearAlgebra_1_1ArrayVector.html",tooltip="A core-local vector. "];
  Node3 -> Node30 [dir="back",color="midnightblue",fontsize="10",style="solid",fontname="Helvetica"];
  Node3 -> Node19 [dir="back",color="midnightblue",fontsize="10",style="solid",fontname="Helvetica"];
  Node3 -> Node11 [dir="back",color="midnightblue",fontsize="10",style="solid",fontname="Helvetica"];
  Node11 [label="AMP::LinearAlgebra\l::NativeVector",height=0.2,width=0.4,color="black", fillcolor="white", style="filled",URL="$classAMP_1_1LinearAlgebra_1_1NativeVector.html",tooltip="A light wrapper around a vector from a TPL. "];
  Node11 -> Node35 [dir="back",color="midnightblue",fontsize="10",style="solid",fontname="Helvetica"];
  Node11 -> Node36 [dir="back",color="midnightblue",fontsize="10",style="solid",fontname="Helvetica"];
  Node3 -> Node24 [dir="back",color="midnightblue",fontsize="10",style="solid",fontname="Helvetica"];
  Node24 [label="AMP::LinearAlgebra\l::NullVector\< TYPE \>",height=0.2,width=0.4,color="black", fillcolor="white", style="filled",URL="$classAMP_1_1LinearAlgebra_1_1NullVector.html",tooltip="An empty vector. "];
  Node3 -> Node15 [dir="back",color="midnightblue",fontsize="10",style="solid",fontname="Helvetica"];
  Node15 [label="AMP::LinearAlgebra\l::SimpleVector\< TYPE,\l VecOps, VecData \>",height=0.2,width=0.4,color="black", fillcolor="white", style="filled",URL="$classAMP_1_1LinearAlgebra_1_1SimpleVector.html",tooltip="A core-local vector. "];
  Node3 -> Node37 [dir="back",color="midnightblue",fontsize="10",style="solid",fontname="Helvetica"];
  Node37 [label="AMP::LinearAlgebra\l::SubsetVector",height=0.2,width=0.4,color="black", fillcolor="white", style="filled",URL="$classAMP_1_1LinearAlgebra_1_1SubsetVector.html",tooltip="This vector is a subset of an AMP Vector. "];
  Node416 [label="AMP::LinearAlgebra\l::EpetraVector",height=0.2,width=0.4,color="black", fillcolor="white", style="filled",URL="$classAMP_1_1LinearAlgebra_1_1EpetraVector.html",tooltip="A class that manages an Epetra_Vector. "];
  Node416 -> Node31 [dir="back",color="midnightblue",fontsize="10",style="solid",fontname="Helvetica"];
  Node95 [label="AMP::LinearAlgebra\l::SundialsVector",height=0.2,width=0.4,color="black", fillcolor="white", style="filled",URL="$classAMP_1_1LinearAlgebra_1_1SundialsVector.html",tooltip="SundialsVector is a bridge between AMP::LinearAlgebra::Vector and the Sundials N_Vector data structur..."];
  Node95 -> Node33 [dir="back",color="midnightblue",fontsize="10",style="solid",fontname="Helvetica"];
  Node71 [label="VecData",height=0.2,width=0.4,color="grey75", fillcolor="white", style="filled"];
  Node71 -> Node15 [dir="back",color="midnightblue",fontsize="10",style="solid",fontname="Helvetica"];
  Node70 [label="VecOps",height=0.2,width=0.4,color="grey75", fillcolor="white", style="filled"];
  Node70 -> Node15 [dir="back",color="midnightblue",fontsize="10",style="solid",fontname="Helvetica"];
  Node64 [label="AMP::LinearAlgebra\l::VectorData",height=0.2,width=0.4,color="black", fillcolor="white", style="filled",URL="$classAMP_1_1LinearAlgebra_1_1VectorData.html",tooltip="A class used to hold vector data. "];
  Node64 -> Node65 [dir="back",color="midnightblue",fontsize="10",style="solid",fontname="Helvetica"];
  Node65 [label="AMP::LinearAlgebra\l::EpetraVectorData",height=0.2,width=0.4,color="black", fillcolor="white", style="filled",URL="$classAMP_1_1LinearAlgebra_1_1EpetraVectorData.html",tooltip="A linear algebra engine that uses Epetra. "];
  Node65 -> Node29 [dir="back",color="midnightblue",fontsize="10",style="solid",fontname="Helvetica"];
  Node29 [label="AMP::LinearAlgebra\l::EpetraVectorEngine",height=0.2,width=0.4,color="black", fillcolor="white", style="filled",URL="$classAMP_1_1LinearAlgebra_1_1EpetraVectorEngine.html",tooltip="A linear algebra engine that uses Epetra. "];
  Node64 -> Node66 [dir="back",color="midnightblue",fontsize="10",style="solid",fontname="Helvetica"];
  Node66 [label="AMP::LinearAlgebra\l::MultiVectorData",height=0.2,width=0.4,color="black", fillcolor="white", style="filled",URL="$classAMP_1_1LinearAlgebra_1_1MultiVectorData.html",tooltip="A class used to hold vector data. "];
  Node66 -> Node19 [dir="back",color="midnightblue",fontsize="10",style="solid",fontname="Helvetica"];
  Node64 -> Node3 [dir="back",color="midnightblue",fontsize="10",style="solid",fontname="Helvetica"];
  Node64 -> Node67 [dir="back",color="midnightblue",fontsize="10",style="solid",fontname="Helvetica"];
  Node67 [label="AMP::LinearAlgebra\l::VectorDataCPU\< TYPE \>",height=0.2,width=0.4,color="black", fillcolor="white", style="filled",URL="$classAMP_1_1LinearAlgebra_1_1VectorDataCPU.html",tooltip="A class used to hold vector data. "];
  Node64 -> Node68 [dir="back",color="midnightblue",fontsize="10",style="solid",fontname="Helvetica"];
  Node68 [label="AMP::LinearAlgebra\l::VectorDataGPU\< TYPE \>",height=0.2,width=0.4,color="black", fillcolor="white", style="filled",URL="$classAMP_1_1LinearAlgebra_1_1VectorDataGPU.html",tooltip="A class used to hold vector data. "];
  Node64 -> Node69 [dir="back",color="midnightblue",fontsize="10",style="solid",fontname="Helvetica"];
  Node69 [label="AMP::LinearAlgebra\l::VectorDataNull\< TYPE \>",height=0.2,width=0.4,color="black", fillcolor="white", style="filled",URL="$classAMP_1_1LinearAlgebra_1_1VectorDataNull.html",tooltip="A class used to hold vector data. "];
  Node69 -> Node24 [dir="back",color="midnightblue",fontsize="10",style="solid",fontname="Helvetica"];
  Node64 -> Node17 [dir="back",color="midnightblue",fontsize="10",style="solid",fontname="Helvetica"];
  Node17 [label="AMP::LinearAlgebra\l::VectorEngine",height=0.2,width=0.4,color="black", fillcolor="white", style="filled",URL="$classAMP_1_1LinearAlgebra_1_1VectorEngine.html",tooltip="A class that can perform mathematics on vectors. "];
  Node17 -> Node29 [dir="back",color="midnightblue",fontsize="10",style="solid",fontname="Helvetica"];
  Node17 -> Node19 [dir="back",color="midnightblue",fontsize="10",style="solid",fontname="Helvetica"];
  Node17 -> Node35 [dir="back",color="midnightblue",fontsize="10",style="solid",fontname="Helvetica"];
  Node17 -> Node36 [dir="back",color="midnightblue",fontsize="10",style="solid",fontname="Helvetica"];
  Node0 [label="AMP::LinearAlgebra\l::VectorOperations",height=0.2,width=0.4,color="black", fillcolor="white", style="filled",URL="$classAMP_1_1LinearAlgebra_1_1VectorOperations.html",tooltip="A class used to hold vector operations. "];
  Node0 -> Node1 [dir="back",color="midnightblue",fontsize="10",style="solid",fontname="Helvetica"];
  Node1 [label="AMP::LinearAlgebra\l::MultiVectorOperations",height=0.2,width=0.4,color="black", fillcolor="white", style="filled",URL="$classAMP_1_1LinearAlgebra_1_1MultiVectorOperations.html",tooltip="A set of vector operations for multivectors. "];
  Node1 -> Node19 [dir="back",color="midnightblue",fontsize="10",style="solid",fontname="Helvetica"];
  Node0 -> Node3 [dir="back",color="midnightblue",fontsize="10",style="solid",fontname="Helvetica"];
  Node0 -> Node17 [dir="back",color="midnightblue",fontsize="10",style="solid",fontname="Helvetica"];
  Node0 -> Node25 [dir="back",color="midnightblue",fontsize="10",style="solid",fontname="Helvetica"];
  Node25 [label="AMP::LinearAlgebra\l::VectorOperationsCuda\l\< TYPE \>",height=0.2,width=0.4,color="black", fillcolor="white", style="filled",URL="$classAMP_1_1LinearAlgebra_1_1VectorOperationsCuda.html",tooltip="A default set of vector operations. "];
  Node0 -> Node23 [dir="back",color="midnightblue",fontsize="10",style="solid",fontname="Helvetica"];
  Node23 [label="AMP::LinearAlgebra\l::VectorOperationsDefault\l\< TYPE \>",height=0.2,width=0.4,color="black", fillcolor="white", style="filled",URL="$classAMP_1_1LinearAlgebra_1_1VectorOperationsDefault.html",tooltip="A default set of vector operations. "];
  Node23 -> Node24 [dir="back",color="midnightblue",fontsize="10",style="solid",fontname="Helvetica"];
  Node23 -> Node25 [dir="back",color="midnightblue",fontsize="10",style="solid",fontname="Helvetica"];
  Node0 -> Node26 [dir="back",color="midnightblue",fontsize="10",style="solid",fontname="Helvetica"];
  Node26 [label="AMP::LinearAlgebra\l::VectorOperationsOpenMP\l\< TYPE \>",height=0.2,width=0.4,color="black", fillcolor="white", style="filled",URL="$classAMP_1_1LinearAlgebra_1_1VectorOperationsOpenMP.html",tooltip="A default set of vector operations. "];
  Node0 -> Node27 [dir="back",color="midnightblue",fontsize="10",style="solid",fontname="Helvetica"];
  Node27 [label="AMP::LinearAlgebra\l::VectorOperationsDefault\l\< double \>",height=0.2,width=0.4,color="black", fillcolor="white", style="filled",URL="$classAMP_1_1LinearAlgebra_1_1VectorOperationsDefault.html"];
  Node27 -> Node28 [dir="back",color="midnightblue",fontsize="10",style="solid",fontname="Helvetica"];
  Node28 [label="AMP::LinearAlgebra\l::EpetraVectorOperations",height=0.2,width=0.4,color="black", fillcolor="white", style="filled",URL="$classAMP_1_1LinearAlgebra_1_1EpetraVectorOperations.html",tooltip="A linear algebra engine that uses Epetra. "];
  Node28 -> Node29 [dir="back",color="midnightblue",fontsize="10",style="solid",fontname="Helvetica"];
  Node27 -> Node30 [dir="back",color="midnightblue",fontsize="10",style="solid",fontname="Helvetica"];
  Node27 -> Node35 [dir="back",color="midnightblue",fontsize="10",style="solid",fontname="Helvetica"];
  Node27 -> Node36 [dir="back",color="midnightblue",fontsize="10",style="solid",fontname="Helvetica"];
  Node27 -> Node37 [dir="back",color="midnightblue",fontsize="10",style="solid",fontname="Helvetica"];
  Node0 -> Node38 [dir="back",color="midnightblue",fontsize="10",style="solid",fontname="Helvetica"];
  Node38 [label="AMP::LinearAlgebra\l::VectorOperationsDefault\< T \>",height=0.2,width=0.4,color="black", fillcolor="white", style="filled",URL="$classAMP_1_1LinearAlgebra_1_1VectorOperationsDefault.html"];
  Node38 -> Node39 [dir="back",color="midnightblue",fontsize="10",style="solid",fontname="Helvetica"];
}
