digraph "src/operators/boundary/MassMatrixCorrection.h"
{
  edge [fontname="Helvetica",fontsize="10",labelfontname="Helvetica",labelfontsize="10"];
  node [fontname="Helvetica",fontsize="10",shape=record];
  Node0 [label="src/operators/boundary\l/MassMatrixCorrection.h",height=0.2,width=0.4,color="black", fillcolor="grey75", style="filled", fontcolor="black"];
  Node0 -> Node1 [color="midnightblue",fontsize="10",style="solid",fontname="Helvetica"];
  Node1 [label="BoundaryOperator.h",height=0.2,width=0.4,color="black", fillcolor="white", style="filled",URL="$BoundaryOperator_8h.html"];
  Node1 -> Node2 [color="midnightblue",fontsize="10",style="solid",fontname="Helvetica"];
  Node2 [label="AMP/operators/Operator.h",height=0.2,width=0.4,color="grey75", fillcolor="white", style="filled"];
  Node0 -> Node3 [color="midnightblue",fontsize="10",style="solid",fontname="Helvetica"];
  Node3 [label="DirichletMatrixCorrection\lParameters.h",height=0.2,width=0.4,color="black", fillcolor="white", style="filled",URL="$DirichletMatrixCorrectionParameters_8h.html"];
  Node3 -> Node4 [color="midnightblue",fontsize="10",style="solid",fontname="Helvetica"];
  Node4 [label="AMP/operators/boundary\l/LinearBoundaryOperatorParameters.h",height=0.2,width=0.4,color="grey75", fillcolor="white", style="filled"];
  Node0 -> Node5 [color="midnightblue",fontsize="10",style="solid",fontname="Helvetica"];
  Node5 [label="AMP/vectors/Variable.h",height=0.2,width=0.4,color="grey75", fillcolor="white", style="filled"];
}
