digraph "src/operators/mechanics/MechanicsLinearElement.h"
{
  edge [fontname="Helvetica",fontsize="10",labelfontname="Helvetica",labelfontsize="10"];
  node [fontname="Helvetica",fontsize="10",shape=record];
  Node0 [label="src/operators/mechanics\l/MechanicsLinearElement.h",height=0.2,width=0.4,color="black", fillcolor="grey75", style="filled", fontcolor="black"];
  Node0 -> Node1 [color="midnightblue",fontsize="10",style="solid",fontname="Helvetica"];
  Node1 [label="vector",height=0.2,width=0.4,color="grey75", fillcolor="white", style="filled"];
  Node0 -> Node2 [color="midnightblue",fontsize="10",style="solid",fontname="Helvetica"];
  Node2 [label="memory",height=0.2,width=0.4,color="grey75", fillcolor="white", style="filled"];
  Node0 -> Node3 [color="midnightblue",fontsize="10",style="solid",fontname="Helvetica"];
  Node3 [label="MechanicsElement.h",height=0.2,width=0.4,color="black", fillcolor="white", style="filled",URL="$MechanicsElement_8h.html"];
  Node3 -> Node1 [color="midnightblue",fontsize="10",style="solid",fontname="Helvetica"];
  Node3 -> Node2 [color="midnightblue",fontsize="10",style="solid",fontname="Helvetica"];
  Node3 -> Node4 [color="midnightblue",fontsize="10",style="solid",fontname="Helvetica"];
  Node4 [label="AMP/operators/ElementOperation.h",height=0.2,width=0.4,color="grey75", fillcolor="white", style="filled"];
  Node3 -> Node5 [color="midnightblue",fontsize="10",style="solid",fontname="Helvetica"];
  Node5 [label="MechanicsMaterialModel.h",height=0.2,width=0.4,color="black", fillcolor="white", style="filled",URL="$MechanicsMaterialModel_8h.html"];
  Node5 -> Node6 [color="midnightblue",fontsize="10",style="solid",fontname="Helvetica"];
  Node6 [label="cstring",height=0.2,width=0.4,color="grey75", fillcolor="white", style="filled"];
  Node5 -> Node7 [color="midnightblue",fontsize="10",style="solid",fontname="Helvetica"];
  Node7 [label="AMP/materials/Material.h",height=0.2,width=0.4,color="grey75", fillcolor="white", style="filled"];
  Node5 -> Node8 [color="midnightblue",fontsize="10",style="solid",fontname="Helvetica"];
  Node8 [label="AMP/operators/ElementPhysics\lModel.h",height=0.2,width=0.4,color="grey75", fillcolor="white", style="filled"];
  Node5 -> Node9 [color="midnightblue",fontsize="10",style="solid",fontname="Helvetica"];
  Node9 [label="AMP/operators/mechanics\l/UpdatedLagrangianUtils.h",height=0.2,width=0.4,color="grey75", fillcolor="white", style="filled"];
  Node5 -> Node2 [color="midnightblue",fontsize="10",style="solid",fontname="Helvetica"];
  Node3 -> Node10 [color="midnightblue",fontsize="10",style="solid",fontname="Helvetica"];
  Node10 [label="libmesh/elem.h",height=0.2,width=0.4,color="grey75", fillcolor="white", style="filled"];
  Node3 -> Node11 [color="midnightblue",fontsize="10",style="solid",fontname="Helvetica"];
  Node11 [label="libmesh/fe_base.h",height=0.2,width=0.4,color="grey75", fillcolor="white", style="filled"];
  Node3 -> Node12 [color="midnightblue",fontsize="10",style="solid",fontname="Helvetica"];
  Node12 [label="libmesh/fe_type.h",height=0.2,width=0.4,color="grey75", fillcolor="white", style="filled"];
  Node3 -> Node13 [color="midnightblue",fontsize="10",style="solid",fontname="Helvetica"];
  Node13 [label="libmesh/quadrature.h",height=0.2,width=0.4,color="grey75", fillcolor="white", style="filled"];
}
