digraph "src/solvers/SolverStrategyParameters.h"
{
  edge [fontname="Helvetica",fontsize="10",labelfontname="Helvetica",labelfontsize="10"];
  node [fontname="Helvetica",fontsize="10",shape=record];
  Node5 [label="src/solvers/SolverStrategy\lParameters.h",height=0.2,width=0.4,color="black", fillcolor="grey75", style="filled", fontcolor="black"];
  Node5 -> Node6 [dir="back",color="midnightblue",fontsize="10",style="solid",fontname="Helvetica"];
  Node6 [label="src/solvers/SolverStrategy.h",height=0.2,width=0.4,color="black", fillcolor="white", style="filled",URL="$SolverStrategy_8h.html"];
  Node6 -> Node7 [dir="back",color="midnightblue",fontsize="10",style="solid",fontname="Helvetica"];
  Node7 [label="src/solvers/ColumnSolver.h",height=0.2,width=0.4,color="black", fillcolor="white", style="filled",URL="$ColumnSolver_8h.html"];
  Node6 -> Node8 [dir="back",color="midnightblue",fontsize="10",style="solid",fontname="Helvetica"];
  Node8 [label="src/solvers/NonlinearKrylov\lAcceleratorParameters.h",height=0.2,width=0.4,color="black", fillcolor="white", style="filled",URL="$NonlinearKrylovAcceleratorParameters_8h.html"];
  Node8 -> Node9 [dir="back",color="midnightblue",fontsize="10",style="solid",fontname="Helvetica"];
  Node9 [label="src/solvers/NonlinearKrylov\lAccelerator.h",height=0.2,width=0.4,color="black", fillcolor="white", style="filled",URL="$NonlinearKrylovAccelerator_8h.html"];
  Node6 -> Node9 [dir="back",color="midnightblue",fontsize="10",style="solid",fontname="Helvetica"];
}
