digraph "src/vectors/SubsetVariable.h"
{
  edge [fontname="Helvetica",fontsize="10",labelfontname="Helvetica",labelfontsize="10"];
  node [fontname="Helvetica",fontsize="10",shape=record];
  Node4 [label="src/vectors/SubsetVariable.h",height=0.2,width=0.4,color="black", fillcolor="grey75", style="filled", fontcolor="black"];
  Node4 -> Node5 [dir="back",color="midnightblue",fontsize="10",style="solid",fontname="Helvetica"];
  Node5 [label="src/vectors/MeshVariable.h",height=0.2,width=0.4,color="black", fillcolor="white", style="filled",URL="$MeshVariable_8h.html"];
  Node4 -> Node6 [dir="back",color="midnightblue",fontsize="10",style="solid",fontname="Helvetica"];
  Node6 [label="src/vectors/RandomSubset\lVariable.h",height=0.2,width=0.4,color="black", fillcolor="white", style="filled",URL="$RandomSubsetVariable_8h.html"];
  Node4 -> Node7 [dir="back",color="midnightblue",fontsize="10",style="solid",fontname="Helvetica"];
  Node7 [label="src/vectors/StridedVariable.h",height=0.2,width=0.4,color="black", fillcolor="white", style="filled",URL="$StridedVariable_8h.html"];
}
