digraph "src/utils/Utilities.h"
{
  edge [fontname="Helvetica",fontsize="10",labelfontname="Helvetica",labelfontsize="10"];
  node [fontname="Helvetica",fontsize="10",shape=record];
  Node0 [label="src/utils/Utilities.h",height=0.2,width=0.4,color="black", fillcolor="grey75", style="filled", fontcolor="black"];
  Node0 -> Node1 [color="midnightblue",fontsize="10",style="solid",fontname="Helvetica"];
  Node1 [label="AMP/utils/UtilityMacros.h",height=0.2,width=0.4,color="grey75", fillcolor="white", style="filled"];
  Node0 -> Node2 [color="midnightblue",fontsize="10",style="solid",fontname="Helvetica"];
  Node2 [label="StackTrace/Utilities.h",height=0.2,width=0.4,color="grey75", fillcolor="white", style="filled"];
  Node0 -> Node3 [color="midnightblue",fontsize="10",style="solid",fontname="Helvetica"];
  Node3 [label="chrono",height=0.2,width=0.4,color="grey75", fillcolor="white", style="filled"];
  Node0 -> Node4 [color="midnightblue",fontsize="10",style="solid",fontname="Helvetica"];
  Node4 [label="cstdarg",height=0.2,width=0.4,color="grey75", fillcolor="white", style="filled"];
  Node0 -> Node5 [color="midnightblue",fontsize="10",style="solid",fontname="Helvetica"];
  Node5 [label="limits",height=0.2,width=0.4,color="grey75", fillcolor="white", style="filled"];
  Node0 -> Node6 [color="midnightblue",fontsize="10",style="solid",fontname="Helvetica"];
  Node6 [label="math.h",height=0.2,width=0.4,color="grey75", fillcolor="white", style="filled"];
  Node0 -> Node7 [color="midnightblue",fontsize="10",style="solid",fontname="Helvetica"];
  Node7 [label="sstream",height=0.2,width=0.4,color="grey75", fillcolor="white", style="filled"];
  Node0 -> Node8 [color="midnightblue",fontsize="10",style="solid",fontname="Helvetica"];
  Node8 [label="stdio.h",height=0.2,width=0.4,color="grey75", fillcolor="white", style="filled"];
  Node0 -> Node9 [color="midnightblue",fontsize="10",style="solid",fontname="Helvetica"];
  Node9 [label="string",height=0.2,width=0.4,color="grey75", fillcolor="white", style="filled"];
  Node0 -> Node10 [color="midnightblue",fontsize="10",style="solid",fontname="Helvetica"];
  Node10 [label="sys/stat.h",height=0.2,width=0.4,color="grey75", fillcolor="white", style="filled"];
  Node0 -> Node11 [color="midnightblue",fontsize="10",style="solid",fontname="Helvetica"];
  Node11 [label="sys/types.h",height=0.2,width=0.4,color="grey75", fillcolor="white", style="filled"];
  Node0 -> Node12 [color="midnightblue",fontsize="10",style="solid",fontname="Helvetica"];
  Node12 [label="vector",height=0.2,width=0.4,color="grey75", fillcolor="white", style="filled"];
  Node0 -> Node13 [color="midnightblue",fontsize="10",style="solid",fontname="Helvetica"];
  Node13 [label="AMP/utils/Utilities.hpp",height=0.2,width=0.4,color="grey75", fillcolor="white", style="filled"];
}
