digraph "src/operators/mechanics/VonMisesElastoPlasticModel.h"
{
  edge [fontname="Helvetica",fontsize="10",labelfontname="Helvetica",labelfontsize="10"];
  node [fontname="Helvetica",fontsize="10",shape=record];
  Node0 [label="src/operators/mechanics\l/VonMisesElastoPlasticModel.h",height=0.2,width=0.4,color="black", fillcolor="grey75", style="filled", fontcolor="black"];
  Node0 -> Node1 [color="midnightblue",fontsize="10",style="solid",fontname="Helvetica"];
  Node1 [label="MechanicsMaterialModel.h",height=0.2,width=0.4,color="black", fillcolor="white", style="filled",URL="$MechanicsMaterialModel_8h.html"];
  Node1 -> Node2 [color="midnightblue",fontsize="10",style="solid",fontname="Helvetica"];
  Node2 [label="cstring",height=0.2,width=0.4,color="grey75", fillcolor="white", style="filled"];
  Node1 -> Node3 [color="midnightblue",fontsize="10",style="solid",fontname="Helvetica"];
  Node3 [label="AMP/materials/Material.h",height=0.2,width=0.4,color="grey75", fillcolor="white", style="filled"];
  Node1 -> Node4 [color="midnightblue",fontsize="10",style="solid",fontname="Helvetica"];
  Node4 [label="AMP/operators/ElementPhysics\lModel.h",height=0.2,width=0.4,color="grey75", fillcolor="white", style="filled"];
  Node1 -> Node5 [color="midnightblue",fontsize="10",style="solid",fontname="Helvetica"];
  Node5 [label="AMP/operators/mechanics\l/UpdatedLagrangianUtils.h",height=0.2,width=0.4,color="grey75", fillcolor="white", style="filled"];
  Node1 -> Node6 [color="midnightblue",fontsize="10",style="solid",fontname="Helvetica"];
  Node6 [label="memory",height=0.2,width=0.4,color="grey75", fillcolor="white", style="filled"];
  Node0 -> Node6 [color="midnightblue",fontsize="10",style="solid",fontname="Helvetica"];
  Node0 -> Node7 [color="midnightblue",fontsize="10",style="solid",fontname="Helvetica"];
  Node7 [label="vector",height=0.2,width=0.4,color="grey75", fillcolor="white", style="filled"];
}
